[gd_resource type="ParticlesMaterial" load_steps=5 format=2]

[sub_resource type="Curve" id=1]
min_value = -200.0
max_value = 200.0
_data = [ Vector2( 0, 151.36 ), 0.0, -142.256, 0, 0, Vector2( 1, -200 ), -399.481, 0.0, 0, 0 ]

[sub_resource type="CurveTexture" id=2]
curve = SubResource( 1 )

[sub_resource type="Curve" id=3]
_data = [ Vector2( 0, 1 ), 0.0, -0.0570111, 0, 0, Vector2( 1, 0 ), -3.50731, 0.0, 0, 0 ]

[sub_resource type="CurveTexture" id=4]
curve = SubResource( 3 )

[resource]
emission_shape = 1
emission_sphere_radius = 15.0
flag_disable_z = true
spread = 180.0
gravity = Vector3( 0, 0, 0 )
angular_velocity = 250.0
angular_velocity_random = 1.0
orbit_velocity = 0.0
orbit_velocity_random = 0.0
linear_accel = 20.0
radial_accel_curve = SubResource( 2 )
angle = 180.0
angle_random = 1.0
scale = 15.0
scale_random = 1.0
scale_curve = SubResource( 4 )
color = Color( 0.67451, 0, 0.0156863, 1 )
