[gd_resource type="StyleBoxFlat" format=2]

[resource]
bg_color = Color( 0.133333, 0.219608, 0.521569, 1 )
border_width_left = 2
border_width_top = 2
border_width_right = 2
border_width_bottom = 2
border_color = Color( 0.658824, 0.054902, 0.054902, 1 )
shadow_color = Color( 0.133333, 0.219608, 0.521569, 1 )
shadow_size = 3
