[gd_scene load_steps=4 format=2]

[ext_resource path="res://Scripts/Windows/GameOverScene.gd" type="Script" id=1]
[ext_resource path="res://Themes/Basic/Basic_Theme.tres" type="Theme" id=2]
[ext_resource path="res://Scenes/Windows/HighScoreViewer.tscn" type="PackedScene" id=3]




[node name="WindowLayer" type="CanvasLayer"]
script = ExtResource( 1 )

[node name="GameOverScene" type="ColorRect" parent="."]
anchor_left = 0.5
anchor_top = 0.5
anchor_right = 0.5
anchor_bottom = 0.5
margin_left = -512.0
margin_top = -300.0
margin_right = 512.0
margin_bottom = 300.0
theme = ExtResource( 2 )
color = Color( 1, 1, 1, 0.0784314 )

[node name="HighScorePanel" parent="GameOverScene" instance=ExtResource( 3 )]
margin_top = 45.0
margin_bottom = 282.0

[node name="VBoxContainer" type="VBoxContainer" parent="GameOverScene"]
anchor_left = 0.5
anchor_top = 0.5
anchor_right = 0.5
anchor_bottom = 0.5
margin_left = -41.5
margin_top = -2.0
margin_right = 41.5
margin_bottom = 72.0
size_flags_horizontal = 3
size_flags_vertical = 3
custom_constants/separation = 10
alignment = 1

[node name="RestartButton" type="Button" parent="GameOverScene/VBoxContainer"]
margin_right = 83.0
margin_bottom = 18.0
text = "Restart"

[node name="MainMenuButton" type="Button" parent="GameOverScene/VBoxContainer"]
margin_top = 28.0
margin_right = 83.0
margin_bottom = 46.0
text = "Main Menu"

[node name="ExitButton" type="Button" parent="GameOverScene/VBoxContainer"]
margin_top = 56.0
margin_right = 83.0
margin_bottom = 74.0
text = "Exit"
[connection signal="mouse_entered" from="GameOverScene/VBoxContainer/RestartButton" to="." method="_on_RestartButton_mouse_entered"]
[connection signal="pressed" from="GameOverScene/VBoxContainer/RestartButton" to="." method="_on_RestartButton_pressed"]
[connection signal="mouse_entered" from="GameOverScene/VBoxContainer/MainMenuButton" to="." method="_on_MainMenuButton_mouse_entered"]
[connection signal="pressed" from="GameOverScene/VBoxContainer/MainMenuButton" to="." method="_on_MainMenuButton_pressed"]
[connection signal="mouse_entered" from="GameOverScene/VBoxContainer/ExitButton" to="." method="_on_ExitButton_mouse_entered"]
[connection signal="pressed" from="GameOverScene/VBoxContainer/ExitButton" to="." method="_on_ExitButton_pressed"]
