[gd_scene load_steps=2 format=2]

[ext_resource path="res://Scripts/UI/HUD.gd" type="Script" id=1]


[node name="HUD" type="CanvasLayer"]
script = ExtResource( 1 )

[node name="TimePlayed" type="Label" parent="."]
margin_left = 10.0
margin_top = 10.0
margin_right = 40.0
margin_bottom = 14.0
text = "TIMEPLAYED"
__meta__ = {
"_edit_use_anchors_": false
}

[node name="Points" type="Label" parent="."]
anchor_left = 0.5
anchor_right = 0.5
margin_left = -24.0
margin_top = 10.0
margin_right = 24.0
margin_bottom = 14.0
text = "POINTS"
align = 1
__meta__ = {
"_edit_use_anchors_": false
}

[node name="Kills" type="Label" parent="."]
anchor_left = 1.0
anchor_right = 1.0
margin_left = -70.0
margin_top = 10.0
margin_bottom = 14.0
text = "KILLS"
__meta__ = {
"_edit_use_anchors_": false
}

[node name="PlayTimer" type="Timer" parent="."]
[connection signal="timeout" from="PlayTimer" to="." method="_on_PlayTimer_timeout"]
