[gd_resource type="ParticlesMaterial" format=2]

[resource]
flag_disable_z = true
spread = 30.0
gravity = Vector3( 0, 0, 0 )
initial_velocity = 75.0
initial_velocity_random = 1.0
angular_velocity = 250.0
orbit_velocity = 0.0
orbit_velocity_random = 0.0
damping = 20.0
angle = 180.0
angle_random = 1.0
scale = 3.0
color = Color( 0.67451, 0, 0.0156863, 1 )
